Practical Session: working with jsonlite
…
Transforming JSON data into tidy data sets

The art of rectangling

yelp_df <- tibble(businesses = yelp_list)
yelp_df %>% hoist(businesses, name = "name")

## # A tibble: 500 x 2
##    name                             businesses       
##    <chr>                            <list>           
##  1 Eric Goldberg, MD                <named list [14]>
##  2 Clancy's Pub                     <named list [14]>
##  3 Cool Springs Golf Center         <named list [14]>
##  4 Verizon Wireless                 <named list [14]>
##  5 Emil's Lounge                    <named list [14]>
##  6 Alexion's Bar & Grill            <named list [14]>
##  7 Flynn's E W Tire Service Center  <named list [14]>
##  8 Forsythe Miniature Golf & Snacks <named list [14]>
##  9 Quaker State Construction        <named list [14]>
## 10 Kings Family Restaurant          <named list [14]>
## # ... with 490 more rows
…
